PlanetModuleRefinery;requiredfactionnameid;farplacementdistoffset;descriptionstringid;cargoshiptype;hullpointrestorerate;rotatefacingtype;numrandomdebrissmall;maxcargoshipcount;maxshieldmitigation;requiredcompletedresearchsubjects;formationrank;infocardicon;subject;antimatterrestorerate;buildeffectname;numsoundsfor:ongeneralorderissued;baseprice;numsoundsfor:onattackorderissued;metal;cargoshiprespawntime;isaffectedbysimilarmodulecostresearch;placementradius;rendershield;level;rotateconstantly;crystal;planetupgradeslottype;basearmorpoints;namestringid;armortype;maxshadow;meshnameincreasedeffectname;numsoundsfor:onselected;prerequisites;researchprerequisite;numresearchprerequisites;numspecificdebris;criteriatype;minshadow;mainviewicon;basebuildtime;picture;planetupgradeslotcount;maxshieldpoints;numsoundsfor:onstartphasejump;numrandomdebrislarge;shieldmeshname;shieldpointrestorerate;entitytype;maxantimatter;smallhudicon;statcounttype;minzoomdistancemult;meshnameinfo;swapminetype;meshnamedecreasedeffectname;planetmoduleroletype;hudicon;numsoundsfor:oncreation;culturespreadrate;nearplacementdistoffset;maxhullpoints;experiencepointsfordestroying;rotatesoundname;credits;spawncount;meshnameinfocount;resourceextractiontype;ability:2;ability:3;ability:0;ability:1;ability:4;meshname;angularspeed;soundid;explosionname
Ability;spawnshipsarrivaldelaytime;effectattachinfo;level:2;numownerships;range;numobjects;travelspeed;infocardicon;entryvehicletype;canweaponeffecthitshields;onlyautocastwhendamagetakenexceedsperc;nummines;hasweaponeffects;constraint;burstcount;pickrandomplanettoexploreforautocasttarget;crystal;numsquads;maxnumlevels;level:1;soundid;level:3;weaponeffectattachinfo;attachtype;spawnships;soundcount;levelsourcetype;missilestartturningdistance;minfleetpoints;spawnminesoundid;burstdelay;thresholddistance;starbasetype;projectiletraveleffectname;expirytime;mediumeffectname;smallhudicon;isautocastonbydefault;entryvehiclelaunchinfo;postspawnbuff;weaponeffectorigintype;instantactiontriggertype;onlyautocastwhentotalhulldamageexceedsamount;missileslowturnrate;numconstraints;spawnplanetmodulesoundid;space;basesourceresearchsubject;hudicon;onlyautocastwhendebriswithinrange;coneangle;cancollidewithtarget;smalleffectname;usecosttype;largeeffectname;muzzlesounds;onlyautocastwhentargetantimatterexceedsamount;weaponeffectsdef;numentryvehicles;spawnsquadsoundid;spaceminetype;maxfleetpoints;resourcecost;minexperiencelevelrequired;weight;targetfilter;maxtargetcount;canweaponeffecthithull;requiredfactionnameid;object;missilemaxslowturntime;weapontype;requiredshipslots;entitytype;effectinfo;level;cooldowntime;abilityindex;subject;metal;sound;hitshieldseffectsounds;buffinstantactiontype;placementradius;ownership;onlyautocastwhentargethulldamageexceedsamount;matchownerdamagestate;spawnshipslevelcount;sourcepropertytype;ignorenoncombatshipsforautocasttarget;researchprerequisite;type;planetmoduletype;numresearchprerequisites;requiredshipcount;delayuntilcolonization;hiteffectname;randomship;firedelay;descstringid;antimattercost;weaponbank;isautocastavailable;traveltime;togglestateonnamestringid;anglevariance;spawnshipshyperspacespawntype;onlyautocastwhentargetshielddamageexceedsamount;onlyautocastwhentargetsinbank;bufftype;impulse;requiredcompletedresearchsubjects;hullcost;onlyautocastwhentargetcountexceedsamount;aiusetargetcondition;muzzlesoundminrespawntime;researchprerequisites;needstofacetarget;squadtype;muzzleeffectname;numfrigates;hithulleffectsounds;missiletraveleffectname;isultimateability;effectstaggerdelay;togglestateondescstringid;aiusetime;spawnfrigatesoundid;movethrutarget;weaponeffectimpactoffsettype;frigatetype;numspaces;credits;randomshipcount;namestringid;orderacknowledgementtype;aftercolonizebufftype;level:0;improvesourceresearchsubject
Star;smallhudicon;minzoomdistancemult;entitytype;hyperspaceexitradius;infocardicon;shouldprefer;coronastartcolordistance;coronastartcolor;coloredskyboxmeshinfocount;maxmeshvisibilitydistancetocamera;deepspaceskyboxmeshinfocount;faricon;coronaendcolor;icontexturename;ability:2;maxshadow;dlcid;maxspaceminecountperplayer;iswormhole;meshname;minshadow;mainviewicon;ability:3;ability:0;ability:1;ability:4;picture;movearearadius;meshname;meshinfo;maxstarbasecountperplayer;hudicon;coronaendcolordistance
CapitalShip;maxaccelerationlinear;hullpointrestorerate;autojoinfleetdefault;baserange;damagetype;bombeffectcount;formationrank;infocardicon;antimatterrestorerate;picture;numsoundsfor:ongeneralorderissued;baseprice;numsoundsfor:onattackorderissued;preferstofocusfire;maxaccelerationangular;weapondamageincreaseperc;hyperspacechargingsoundid;rendershield;burstcount;maxrollangle;defaultautoattackrange;usesfighterattack;crystal;canfireatfighter;namestringid;armortype;meshnamedecreasedeffectname;basepopulationkilled;criteriatype;specificdebrismeshname;m_weaponindexforrange;beamwidth;numweapons;squadtypeentitydef:1;squadtypeentitydef:0;squadtypeentitydef:3;squadtypeentitydef:2;targetcountperbank:right;beamglowcolor;soundcount;maxshieldpoints;missilestartturningdistance;numsoundsfor:onstartphasejump;numrandomdebrislarge;duration;shieldpointrestorerate;beameffectsounds;maxdecelerationlinear;damageperbank:back;projectiletraveleffectname;maxantimatter;smallhudicon;numrandomdebrissmall;squadantimattercost:0;squadantimattercost:1;firingalignmenttype;damageperbank:front;minzoomdistancemult;targetcountperbank:left;mass;cultureprotectrate;burstdelay;enginesoundid;missileslowturnrate;damageapplytype;hudicon;numsoundsfor:oncreation;targetcountperbank:back;beamcoretexturename;maxhullpoints;roletype;muzzlesounds;bombeffectanglevariance;damageperbank:left;defaultautoattackon;damageaffecttype;travelspeed;beamtilingrate;fireconstrainttype;weapon;weaponcooldowndecreaseperc;maxshadow;requiredfactionnameid;credits;missilemaxslowturntime;weapontype;damageenums;meshnameincreasedeffectname;bombingfreqtime;entitytype;slotcount;squadantimattercost:2;exhaustparticlesystemname;squadantimattercost:3;metal;sound;hitshieldseffectsounds;startvalue;canonlytargetstructures;range;statcounttype;pointstaggerdelay;maxdecelerationangular;numsoundsfor:onselected;maxspeedlinear;numresearchprerequisites;valueincreaseperlevel;numspecificdebris;minshadow;hiteffectname;mainviewicon;armorpointsfromexperience;firedelay;weapontype;attacktype;buildtime;shieldmeshname;bombeffectsdef;targetcountperbank:front;bombtransittime;requiredcompletedresearchsubjects;hyperspacetravelsoundid;muzzlesoundminrespawntime;beamcorecolor;maxaccelerationstrafe;meshname;meshnameinfo;muzzleeffectname;weaponclasstype;hithulleffectsounds;maxmitigation;weaponeffects;missiletraveleffectname;canbomb;synchronizedtargeting;hasbombinglevels;beamglowtexturename;damageperbank:right;maxrollrate;prebuffcooldowntime;descriptionstringid;meshnameinfocount;prerequisites;basedamage;ability:2;ability:3;ability:0;ability:1;commandpoints;ability:4;soundid;explosionname
ResearchSubject;requiredfactionnameid;smallhudicon;descriptionstringid;perlevelupgradetime;linkedplanettype;linkedweaponclass;uniqueoverlaybrush;basevalue;level;maxnumresearchlevels;entitytype;basecost;bufftoapply;requiredcompletedresearchsubjects;pos;baseupgradetime;infocardicon;tier;subject;metal;researchfield;hudicon;priority;crystal;linkedplanetupgradetype;factionnameid;namestringid;block;prerequisites;researchprerequisite;credits;numresearchprerequisites;researchboolmodifiers;minimumartifactlevel;pactunlockentitydefname;artifactpicture;researchwindowlocation;alliancetype;dlcid;modifiertype;researchfloatmodifiers;researchmodifier;perlevelcostincrease;perlevelvalue;onlyworksiftierlabsexist
PlanetModuleTradePort;requiredfactionnameid;credits;cargoshiptype;hullpointrestorerate;rotatefacingtype;numrandomdebrissmall;maxcargoshipcount;maxshieldmitigation;requiredcompletedresearchsubjects;formationrank;infocardicon;subject;antimatterrestorerate;buildeffectname;numsoundsfor:ongeneralorderissued;baseprice;numsoundsfor:onattackorderissued;metal;cargoshiprespawntime;isaffectedbysimilarmodulecostresearch;placementradius;rendershield;rotateconstantly;crystal;planetupgradeslottype;basearmorpoints;namestringid;armortype;maxshadow;meshnameincreasedeffectname;numsoundsfor:onselected;prerequisites;researchprerequisite;numresearchprerequisites;numspecificdebris;criteriatype;minshadow;mainviewicon;basebuildtime;planetupgradeslotcount;picture;meshnameinfo;maxshieldpoints;numsoundsfor:onstartphasejump;numrandomdebrislarge;shieldmeshname;shieldpointrestorerate;entitytype;maxantimatter;farplacementdistoffset;statcounttype;minzoomdistancemult;level;swapminetype;basetradeincomerate;meshnamedecreasedeffectname;planetmoduleroletype;hudicon;numsoundsfor:oncreation;culturespreadrate;experiencepointsfordestroying;maxhullpoints;nearplacementdistoffset;rotatesoundname;smallhudicon;descriptionstringid;spawncount;meshnameinfocount;resourceextractiontype;ability:2;ability:3;ability:0;ability:1;ability:4;meshname;angularspeed;soundid;explosionname
MissionRaid;entitytype;missiontype
MissionAttackPlanet;entitytype;missiontype
PlanetModuleStandard;requiredfactionnameid;descriptionstringid;hullpointrestorerate;rotatefacingtype;numrandomdebrissmall;maxshieldmitigation;farplacementdistoffset;formationrank;infocardicon;subject;antimatterrestorerate;buildeffectname;numsoundsfor:ongeneralorderissued;baseprice;numsoundsfor:onattackorderissued;metal;isaffectedbysimilarmodulecostresearch;placementradius;rendershield;level;rotateconstantly;crystal;planetupgradeslottype;basearmorpoints;namestringid;armortype;maxshadow;meshnameincreasedeffectname;numsoundsfor:onselected;prerequisites;researchprerequisite;numresearchprerequisites;numspecificdebris;criteriatype;minshadow;mainviewicon;basebuildtime;picture;planetupgradeslotcount;maxshieldpoints;numsoundsfor:onstartphasejump;numrandomdebrislarge;shieldmeshname;shieldpointrestorerate;entitytype;maxantimatter;requiredcompletedresearchsubjects;statcounttype;minzoomdistancemult;meshnameinfo;swapminetype;meshnamedecreasedeffectname;planetmoduleroletype;hudicon;numsoundsfor:oncreation;culturespreadrate;nearplacementdistoffset;maxhullpoints;experiencepointsfordestroying;rotatesoundname;smallhudicon;credits;spawncount;meshnameinfocount;resourceextractiontype;ability:2;ability:3;ability:0;ability:1;ability:4;meshname;angularspeed;soundid;explosionname
MissionDefendFlagship;entitytype;missiontype
PipCloud;empirewindowpipicon;mainviewiconareaoffsetfromcenter;mainviewiconmaxentitycount;mainviewoverlay;entitytype;mainviewoverlayundercursor;pipcloudtype
Quest;max;min;happinesschangeforsuccess;happinesschangeforfailure;entitytype;receiverconstraint;titlestringid;metal;relationshipdecayrate;valuetokill;crystal;questtype;duration;infocarddescstringid;type;reward;credits;weight;pricedemanded;targetconstraint;numtargetconstraints;numreceiverconstraints
Planet;ringschance;dustcloudtemplate;infocardicon;shouldprefer;maxmoduleconstructorcount;diffusescalar;crystalresourceasteroidsetup;tradeincomemodifier;rendershield;planetupgradedef;crystal;maxrefinerycount;maxshadow;iswormhole;attachtype;path:population;soundid;homeplanetmetalincomebonus;asteroidtemplate;path:home;mincount;movearearadius;requiredplanetbonusescount;bonus;path:infrastructure;smallhudicon;cloudlayertexturename;path:artifactlevel;hyperspaceexitradius;undetectedmainviewicon;neutralcrystalresourceasteroidsetup;hudicon;homeplanettaxratebonus;cloudcolor;stage;skyboxscalars;ruinplanettype;populationgrowthrate;iscolonizable;typenamestringid;meshname;extractionrate;maxstarbasecountperplayer;path:social;crystalonstrippedtothecore;planettypeforresearch;entitytype;meshinfocount;creditsonstrippedtothecore;path:tacticalmodules;nullmeshradius;metal;skyboxscalarscount;nullmeshparticleeffect;starttime;asteroidspawnanglevariance;neutralmetalresourceasteroidsetup;maxspaceminecountperplayer;stagecount;minzoomdistancemult;minshadow;mainviewicon;planetruindef;dlcid;picture;healthregenrate;metalresourceasteroidsetup;price;shieldmeshname;maxhealth;upgradetime;isasteroid;ringcolor;maxcount;path:industry;refineryrate;ambiencesoundid;planetresourcesetupinfo;glowcolor;developmenttaxpenalty;extrascuttletimeonstrip;culturespreadratemodifier;totalmaxresourceasteroids;homeplanetcrystalincomebonus;possiblerandomplanetbonusescount;maxmoduleslotcount:civilian;ambientscalar;maxmoduleslotcount:tactical;credits;ability:2;ability:3;ability:0;ability:1;ability:4;shipbuildratemodifier;path:civilianmodules;meshinfo;maxpopulation;effectname;renderasvolcanic;ishomeplanet;metalonstrippedtothecore
Buff;spawnshipsarrivaldelaytime;shields;effectattachinfo;bountyamount;soundid;numfinishconditions;beamwidth;entitymodifier;time;targetcentriceffectpointspawninfo;numownerships;range;allowfirstspawnertostack;hullpercent;travelspeed;buffstackinglimittype;pullforcemagnitude;canweaponeffecthitshields;maxrandomlinearspeed;stackinglimit;periodicaction;damageperpopulationpoint;modulecostfraction;hasweaponeffects;constraint;burstcount;shieldperc;hulldamageperc;antimatterrestorerate;conditionbuffshortname;buffapplychance;planethealthrestorerate;beamcoretexturename;resourceamount;level:0;level:1;level:2;level:3;buffentitymodifiertype;numobjects;spawntype;beamglowcolor;fighterskilled;attachtype;spawnships;teleportstopoffset;mincount;soundcount;muzzlesoundminrespawntime;missilestartturningdistance;numentityboolmodifiers;burstdelay;beameffectsounds;angleoffset;projectiletraveleffectname;expirytime;mediumeffectname;value;typeofdamageneeded;drainantimatterrate;minfleetpoints;allegiancechange;postspawnbuff;smalleffectname;weaponeffectattachinfo;earnrate;bufftype;stolenplanetproductionperc;randomshipcount;instantactiontriggertype;percentageofcost;missileslowturnrate;numconstraints;frigatetype;ischannelling;ispermanent;largeeffectname;coneangle;buffovertimeactiontype;columnradius;damagerate;experiencepercentagetoaward;instantaction;muzzlesounds;damageperimpact;numweaponclasses;populationadded;damageaffecttype;weaponeffectsdef;antimatterfromdamageperc;antimatterperc;numeffects;weaponclassforweaponpassive;maxfleetpoints;abilitylevel;weaponeffectorigintype;numperiodicactions;spawnshipshyperspacespawntype;targetfilter;maxtargetcount;onreapplyduplicatetype;actioncounttype;beamtilingrate;canweaponeffecthithull;requiredfactionnameid;object;isinterruptable;missilemaxslowturntime;resourcetosteal;weapontype;minrandomlinearspeed;shieldrestorerate;entitytype;weaponeffectimpactoffsettype;effectinfo;debriscleanupsounds;level;finishconditiontype;hullperc;abilityindex;numfighters;subject;hull;overtimeaction;sound;isdamageshared;hitshieldseffectsounds;buffinstantactiontype;numovertimeactions;ownership;conditionbufftype;resourcegainperc;damage;beamcorecolor;damagetype;matchownerdamagestate;spawnshipslevelcount;delaybetweeneffects;finishcondition;researchprerequisite;allegiancerestorerate;numresearchprerequisites;requiredshipcount;hiteffectname;randomship;firedelay;minlinearspeed;weaponbank;minradius;damageneeded;anglevariance;numextractors;bufftypetoquery;numinstantactions;impulse;requiredcompletedresearchsubjects;populationkilled;maxcount;instantactionconditiontype;researchprerequisites;cannonshelltype;bufftypetoremove;muzzleeffectname;numfrigates;hithulleffectsounds;relationshipincrease;missiletraveleffectname;minrandomangularspeed;hullrestorerate;requiredship;actioncount;buffexclusivityforaitype;delaytime;spawnfrigatesoundid;maxlinearspeed;beamglowtexturename;actionintervaltime;maxrandomangularspeed;effectstaggerdelay;space;maxradius;passiveweaponeffectchance;numspaces;hullperdebris;entityboolmodifier;damageretaliationperc;teleportdistance;numentitymodifiers;maxnumtargets;chaindelay;antimatter;weight;populationkillrate;type;buildrate;damageperentity;failifnotenoughshipslots
EmpireWindowNode;entitytype;hyperspacenodeicon
ResourceAsteroid;maxshadow;farplacementdistoffset;nearplacementdistoffset;minzoomdistancemult;meshnamecount;resource;entitytype;smallhudicon;minshadow;mainviewicon;namestringid;picture;descstringid;meshname;hudicon;infocardicon
SpaceMine;maxaccelerationlinear;shieldpointrestorerate;basescuttletime;entitytype;numrandomdebrissmall;maxshieldmitigation;infocardicon;numsoundsfor:ongeneralorderissued;numsoundsfor:onattackorderissued;metal;maxaccelerationangular;targetstartfollowrange;scuttlevalue;armortype;maxshadow;maxdecelerationangular;maxshieldpoints;numsoundsfor:onselected;maxspeedlinear;numspecificdebris;minshadow;maxrollangle;mainviewicon;baseantimatterrestorerate;picture;numsoundsfor:onstartphasejump;numrandomdebrislarge;namestringid;crystal;maxdecelerationlinear;basemaxantimatter;smallhudicon;maxaccelerationstrafe;minzoomdistancemult;mass;maxhullpoints;hullpointrestorerate;hudicon;numsoundsfor:oncreation;spawnactivationdelay;targetmaxfollowrange;meshname;armorpoints;credits;maxrollrate;ability:2;ability:3;ability:0;ability:1;ability:4;experiencepointsfordestroying;soundid;explosionname
PlanetModuleWeaponDefense;hullpointrestorerate;beamwidth;targetcountperbank:right;numrandomdebrissmall;maxshieldmitigation;formationrank;infocardicon;antimatterrestorerate;buildeffectname;numsoundsfor:ongeneralorderissued;baseprice;numsoundsfor:onattackorderissued;preferstofocusfire;rendershield;burstcount;defaultautoattackrange;usesfighterattack;crystal;canfireatfighter;meshnamedecreasedeffectname;namestringid;armortype;maxshadow;criteriatype;m_weaponindexforrange;prerequisites;numweapons;swapminetype;basebuildtime;beamglowcolor;planetupgradeslotcount;soundcount;maxshieldpoints;missilestartturningdistance;numsoundsfor:onstartphasejump;numrandomdebrislarge;duration;shieldpointrestorerate;beameffectsounds;damageperbank:back;rotatefacingtype;projectiletraveleffectname;maxantimatter;smallhudicon;damagetype;firingalignmenttype;damageperbank:front;minzoomdistancemult;targetcountperbank:left;burstdelay;missileslowturnrate;damageapplytype;prerequisites;hudicon;numsoundsfor:oncreation;targetcountperbank:back;culturespreadrate;beamcoretexturename;maxhullpoints;experiencepointsfordestroying;muzzlesounds;rotatesoundname;spawncount;resourceextractiontype;damageperbank:left;defaultautoattackon;damageaffecttype;travelspeed;beamtilingrate;fireconstrainttype;weapon;requiredfactionnameid;credits;missilemaxslowturntime;weapontype;damageenums;meshnameincreasedeffectname;attacktype;entitytype;level;farplacementdistoffset;subject;metal;sound;isaffectedbysimilarmodulecostresearch;range;placementradius;rotateconstantly;canonlytargetstructures;hitshieldseffectsounds;planetupgradeslottype;basearmorpoints;pointstaggerdelay;numsoundsfor:onselected;researchprerequisite;numresearchprerequisites;numspecificdebris;minshadow;hiteffectname;mainviewicon;picture;firedelay;weapontype;shieldmeshname;targetcountperbank:front;requiredcompletedresearchsubjects;statcounttype;muzzlesoundminrespawntime;beamcorecolor;meshname;meshnameinfo;muzzleeffectname;weaponclasstype;hithulleffectsounds;weaponeffects;missiletraveleffectname;planetmoduleroletype;synchronizedtargeting;beamglowtexturename;damageperbank:right;nearplacementdistoffset;prebuffcooldowntime;descriptionstringid;meshnameinfocount;ability:2;ability:3;ability:0;ability:1;ability:4;angularspeed;soundid;explosionname
Titan;upgradetypecount;maxaccelerationlinear;hullpointrestorerate;autojoinfleetdefault;baserange;numrandomdebrissmall;bombeffectcount;formationrank;infocardicon;antimatterrestorerate;picture;numsoundsfor:ongeneralorderissued;baseprice;numsoundsfor:onattackorderissued;preferstofocusfire;maxaccelerationangular;weapondamageincreaseperc;hyperspacechargingsoundid;rendershield;burstcount;maxrollangle;defaultautoattackrange;usesfighterattack;crystal;canfireatfighter;namestringid;armortype;meshnamedecreasedeffectname;basepopulationkilled;criteriatype;specificdebrismeshname;m_weaponindexforrange;beamwidth;numweapons;squadtypeentitydef:1;squadtypeentitydef:0;squadtypeentitydef:3;squadtypeentitydef:2;targetcountperbank:right;beamglowcolor;soundcount;maxshieldpoints;missilestartturningdistance;numsoundsfor:onstartphasejump;numrandomdebrislarge;duration;shieldpointrestorerate;beameffectsounds;maxdecelerationlinear;damageperbank:back;projectiletraveleffectname;maxantimatter;smallhudicon;damagetype;squadantimattercost:0;squadantimattercost:1;firingalignmenttype;damageperbank:front;minzoomdistancemult;targetcountperbank:left;mass;cultureprotectrate;burstdelay;enginesoundid;missileslowturnrate;damageapplytype;hudicon;numsoundsfor:oncreation;targetcountperbank:back;beamcoretexturename;maxhullpoints;muzzlesounds;bombeffectanglevariance;bombtransittime;defaultautoattackon;damageaffecttype;travelspeed;beamtilingrate;fireconstrainttype;weapon;weaponcooldowndecreaseperc;maxshadow;requiredfactionnameid;credits;missilemaxslowturntime;weapontype;damageenums;meshnameincreasedeffectname;bombingfreqtime;entitytype;slotcount;level;squadantimattercost:2;exhaustparticlesystemname;squadantimattercost:3;subject;metal;sound;hitshieldseffectsounds;startvalue;canonlytargetstructures;range;statcounttype;pointstaggerdelay;maxdecelerationangular;numsoundsfor:onselected;maxaccelerationstrafe;researchprerequisite;numresearchprerequisites;valueincreaseperlevel;numspecificdebris;minshadow;hiteffectname;mainviewicon;armorpointsfromexperience;firedelay;weapontype;attacktype;buildtime;shieldmeshname;bombeffectsdef;targetcountperbank:front;damageperbank:left;requiredcompletedresearchsubjects;hyperspacetravelsoundid;muzzlesoundminrespawntime;beamcorecolor;maxmitigation;meshname;meshnameinfo;muzzleeffectname;weaponclasstype;hithulleffectsounds;weaponeffects;missiletraveleffectname;maxspeedlinear;upgradetype;canbomb;synchronizedtargeting;hasbombinglevels;beamglowtexturename;damageperbank:right;maxrollrate;prebuffcooldowntime;descriptionstringid;meshnameinfocount;prerequisites;basedamage;ability:2;ability:3;ability:0;ability:1;commandpoints;ability:4;soundid;explosionname
MissionBuildMines;entitytype;missiontype
MissionExplore;entitytype;missiontype
MissionCaptureResources;entitytype;missiontype
Player;debrisdata;factionrelationsmodifier;gameeventsound:attacktargetinvalidasnoweaponstobombplanet;alliancehudiconplanetbombingpact;gameeventsound:attacktargetinvalidasmustbeinsameorbitwell;topwindowleftcaplowres;useractioniconpurchasecapitalshiplevel;planetelevatordata;haswonhomeworldphrasestringid;racerelationsmodcount;numresearchfields;gameeventsound:allyrequestdefendplanet;orderinfocardiconnone;gameeventsound:playerfleetdeparted;gameeventsound:starbaseupgradenotenoughupgradepoints;queststatusiconkillcivilianstructures;useractioniconclosemodulepage0;numrandommeshnameslarge;gameeventsound:occupationvictoryhalfway;gameeventsound:useabilityunmetconstraintisnothomeworld;bottomwindowoverlay;empirewindowbackdrop;field;gameeventsound:questended;gameeventsound:allycapitalplanetlost;gameeventsound:launchsquadsdisabledbydebuff;alliancehudiconmassreductionpact;gameeventsound:bountyalldepleted;useractioniconcloseplanetupgrademanagement;gameeventsound:allyresearchvictorystarted;gameeventsound:playercapitalplanetchanged;gameeventsound:cannonshelldetected;gameeventsound:allianceotherformed;gameeventsound:attacktargetinvalidascantmovetotarget;gameeventsound:enemyresearchvictorystarted;gameeventsound:capitalshiplevelup;gameeventsound:useabilitycooldownnotexpired;gameeventsound:occupationvictorycomplete;infocardiconfleetupkeep;useractioniconcloseplanetfrigatemanagement1;useractioniconcloseplanetfrigatemanagement0;groupmovestatesome;gameeventsound:allyresearchvictorycomplete;infocardiconrefineryship;gameeventsound:newplanetdiscovered;useractioniconopenplayerscreen;autoattackrangestateallnone;researchscreendata;titanchargeupeffectnamedestabilized;actiongridslotbackdrop;page:0;page:1;gameeventsound:bountyincreasedother;autoattackrangestatealllocalarea;useractionicondisbandfleet;shieldabsorbgrowthperdamage;ispsi;topwindowoverlay;haswonmilitarystatusformatstringid;titanchargeupeffectnamebetweenstars;capitalshipchargeupeffectname;defaultfactionnameid;gameeventsound:allydiplomaticvictoryhalfway;gameeventsound:occupationvictorystarted;gameeventsound:hostileplanetdestroyed;useractioniconclosesquadmanagement;count;empirewindowhighresbackdrop;gameeventsound:titanupgradealreadymaxlevel;useractioniconupgradeplanetcivilianmodules;gameeventsound:useabilityunmetconstraintisresourceextractor;factionrelationsmodcount;alliancehudiconenergyweaponcooldownpact;hudiconoverlaynotresearched;gameeventsound:allybackuparrived;titantraveleffectnamedestabilized;gameeventsound:useabilityunmetconstraintmoduleisactivelybeingconstructed;area;gameeventsound:useabilityunmetconstrainthasshielddamage;useractioniconupgradeplanetartifactlevel;capitalshipexiteffectsoundid;researchfieldbuttonicondiplomacy;researchfieldbuttoniconcombat;gameeventsound:colonizeneedprerequisiteresearch;gameeventsound:playerflagshipdestroyed;gameeventsound:useabilityunmetconstraintisinfriendlygravitywell;selectablepriorty;hudskindata;announcementcount;haslosthomeworldphrasestringid;empirewindowfindiconplanetswithartifacts;empirewindowfindiconownedenvoys;gameeventsound:questrejected;useractioniconping;useractionicontogglezoomtocursor;empirewindowfindiconownedscoutships;gameeventsound:abilityupgradealreadymaxlevel;alliancehudiconceasefire;useractioniconclosemodulepage1;quickmarketbackdrop;cohesionrangestatemixed;titanexiteffectname;capitalshiptraveleffectnamedestabilized;gameeventsound:colonizeplanetalreadyowned;useractioniconbuildresourceasteroidextractor;gameeventsound:attacktargetinvalidascanonlyattackstructures;gameeventsound:titanupgradenotenoughupgradepoints;alliancehudiconantimatterpact;blockcount;gameeventsound:enemytitancompleted;gameeventsound:researchalreadymaxlevel;gameeventsound:playerplanetlosttoculture;gameeventsound:researchneedprerequisite;haswonoccupationstatusformatstringid;titaninfo;gameeventsound:researchvictorycomplete;haswonoccupationphrasestringid;hudiconoverlayinfleet;gameeventsound:pirateraidimminent;gameeventsound:useabilityunmetconstraintcanphasedodge;unknownplanetpicture;gameeventsound:allygamewin;capitalshipchargeupeffectnamedestabilized;gameeventsound:enemydiplomaticvictorycomplete;startupmusicthemecount;gameeventsound:bountyincreasedplayer;alliancehudiconmetalcrystlpact;useractioniconupgradeplanetsocial;useractioniconupgradeplanetindustry;gameeventsound:playerquestcompleted;gameeventsound:allytitancompleted;gameeventsound:gamestart;gameeventsound:useabilityunmetconstrainthasantimatter;gameeventsound:allianceceasefireformed;randomcapitalshipnameprefix;useractioniconchangeautoattackrange;neutralmusicthemecount;hudiconoverlaynotenoughcredits;useractionicontogglescuttle;gameeventsound:useabilityunmetconstraintlinkedcargoship;resourceinfocardiconcrystal;gameeventsound:useabilitynoantimatter;infocardiconcapitalship;gameeventsound:enemyflagshipdestroyed;elevatormeshname:bunker;gameeventsound:scuttleshipstopped;frigatechargeupeffectname;gameeventsound:questcompleted;frigateexiteffectname;orderinfocardiconattack;entities;haslostdiplomaticstatusformatstringid;entitydefname;gameeventsound:hostilefleetenroute;gameeventsound:starbaseupgrademaxlevelqueued;infocardattachedtobottombackdrop;gameeventsound:researchvictoryhalfway;artifact;infocardicontradeship;gameeventsound:colonizeplanethastakeoverculture;alliancehudiconshieldpact;gameeventsound:useabilityunmetconstraintwithinsolarsystem;haswonflagshipphrasestringid;fleeticoncount;gameeventsound:useabilityunmetownernoowner;empirewindowfindiconownedplanetswithresourceasteroids;gameeventsound:colonizeplanethasdebuff;gameeventsound:nothingdiscovered;gameeventsound:playerreceivedresourcesfromally;gameeventsound:enemyoccupationvictorystarted;gameeventsound:attacktargetinvalidwithnoreason;capitalshipchargeupeffectsoundid;infocardiconcombinedplanetincome;gameeventsound:artifactdiscovered;useractioniconopenrenamewindow;topwindowrightcaphighres;gameeventsound:playercapitalshiplost;racenameid;gameeventsound:allycapitalshiplost;musicthemedata;gameeventsound:bonusdiscovered;gameeventsound:useabilityunmetconstraintispsi;capitalshiptraveleffectsoundid;useractioniconupgradeplanettacticalmodules;useractioniconclosestarbaseupgrademanagement;useractioniconcloseplanetcapitalshipmanagement;frigatechargeupeffectnamebetweenstars;gameeventsound:playerunitunderattack;gameeventsound:useabilitynotenoughroomforstarbase;gameeventsound:diplomaticvictoryhalfway;useractioniconopenplanetupgrademanagement;unknownplanethudsmallicon;alliancehudiconefficiencypact;gameeventsound:buynofrigatefactory;gameeventsound:attacktargetinvalidasnotdamagableduetobuffs;frigatetraveleffectnamedestabilized;gameeventsound:colonizeplanetalreadybeingcolonized;loadscreencharacterbrush;hyperspacedata;gameeventsound:useabilityunmetconstrainthashulldamage;researchfieldbuttoniconartifact;shielddata;mainviewiconoverlaycapitalshiplevel4;mainviewiconoverlaycapitalshiplevel5;mainviewiconoverlaycapitalshiplevel6;mainviewiconoverlaycapitalshiplevel7;mainviewiconoverlaycapitalshiplevel0;mainviewiconoverlaycapitalshiplevel1;mainviewiconoverlaycapitalshiplevel2;mainviewiconoverlaycapitalshiplevel3;mainviewiconoverlaycapitalshiplevel8;mainviewiconoverlaycapitalshiplevel9;gameeventsound:artifactdiscoveredother;useractioniconstop;gameeventcategoryalliance;elevatormeshname:metalextractor;orderinfocardiconretreat;gameeventsound:useabilitynoundockedsquadmembers;alliancehudiconculturepact;useractioniconretreat;useractioniconopenresearchscreen;gameeventsound:scuttleshipstarted;gameeventsound:allyresearchvictoryhalfway;alliancehudiconpeacetreaty;infocardattachedtoscreenedgebackdrop;racenameparseprefix;gameeventsound:offensivemissiondiscovered;gameeventsound:cannonunderconstruction;gameeventsound:attacktargetinvalidasnotenemy;gameeventsound:useabilityphasespacetarget;gameeventsound:allyplanetunderattack;gameeventsound:planetupgrademaxlevelqueued;quickmarketbackdropnopirates;haslostresearchphrasestringid;gameeventsound:useabilitymineisnotactivated;alliancehudiconphasejumppact;gameeventsound:allianceceasefireoffered;researchfieldbuttonicondefense;gameeventsound:useabilityunmetconstraintcanhavefighters;gameeventsound:allyfleetarrived;picture;infocardiconfrigate;defense;alliancehudicontradeincomepact;gameeventsound:allyoccupationvictorystarted;gameeventsound:buynocommand;haswonresearchstatusformatstringid;gameeventsound:playerflagshiphullseverelydamaged;queststatusiconkillcapitalships;gameeventsound:buynoavailableshipslots;bandbox;racenamestringid;unknownplanethudicon;useractioniconopenmodulepage1;useractioniconopenmodulepage0;gameeventsound:moremoduleslotsneeded;randommeshname;researchinfo;gameeventsound:missiondiscovered;gameeventsound:enemyoccupationvictorycomplete;infocardiconautocast;themebackdropbrush;empirewindowfindiconownedcolonyships;gameeventsound:useabilityunmetconstrainthasphasemissiles;titanexiteffectsoundid;fogofwar;useractioniconpingallystop;otherfactionnameid;haswonresearchphrasestringid;shieldcolor;resourcehudiconmetal;gameeventsound:achievementcompleted;alliancehudiconthrusterpact;playerpicturegroupname;gameeventsound:useabilityunmetconstraintisexplored;fleeticon;haswonpicture;gameoverwindowdata;gameeventsound:buynocapitalshipfactory;gameeventsound:allydiplomaticvictorycomplete;frigatetraveleffectsoundid;groupmovestateall;flagship;alliancehudiconinternalvision;frigatechargeupeffectsoundid;gameeventsound:playertitanshieldsdown;topwindowleftcaphighres;gameeventsound:buynometal;gameeventsound:useabilitytoomanystarbases;gameeventsound:useabilityunmetconstraintisinnonfriendlygravitywell;gameeventsound:gamewin;gameeventsound:playerfleetarrived;gameeventsound:shipupgradealreadyqueuedmaxlevel;queststatusiconkilltacticalstructures;queststatusiconbombanyplanet;gameeventsound:playerflagshipshieldsdown;noncombat;gameeventsound:abilityupgradenounspentpoints;gameeventsound:useabilitynovalidobjecttype;useractioniconopensquadmanagement;useractioniconcloseshiptacticsmanagement;useractioniconchangecohesionrange;haswondiplomaticstatusformatstringid;gameeventsound:buynocredits;gameeventsound:researchneedmorelabmodules;gameeventsound:allytitanqueued;hudiconoverlayplanetbuildshipnotenoughshipslots;gameeventsound:playerplanetsoonlosttoculture;haslostflagshipstatusformatstringid;gameeventsound:invalidmoduleplacementposition;haswonhomeworldstatusformatstringid;gameeventsound:useabilityunmetconstraintcanbecaptured;gameeventsound:useabilitytargetnotinrange;gameeventsound:ping;playerthemegroupname;shieldabsorbdecayrate;hudiconoverlaynotenoughmetal;frigatetraveleffectname;gameeventsound:colonizeplanetnotcolonizable;haslostmilitaryphrasestringid;gameeventsound:playercapitalshiphullseverelydamaged;gameeventcategoryping;gameeventsound:researchcomplete;ainamedata;gameeventsound:modulecomplete;gameeventsound:envoytargetplanetisnowinvalid;gameeventsound:novalidpathobserved;cohesionrangestateallnone;gameeventsound:useabilityunmetconstrainthasantimattershortage;gameeventsound:useabilityunmetconstraintnotinvulnerable;autoattackrangestateallgravitywell;gameeventsound:questadded;gameeventsound:allianceotheroffered;haslostmilitarystatusformatstringid;useractioniconopenrelationshipsscreen;gameeventsound:novalidpathduetobuff;gameeventsound:allyflagshipdestroyed;gameeventsound:attacktargetinvalidasplanetcantbebombed;gameeventsound:useabilityunmetownerlinked;gameeventsound:scuttleplanetstopped;hudiconoverlaystarbaseupgradenotenoughupgradepoints;queststatusiconkillships;gameeventsound:playerfrigatecreated;gameeventsound:piratefleetarrived;gameeventsound:useabilityunmetconstraintlinkedsquad;gameeventsound:planetupgradecomplete;alliancehudiconarmorpact;starbaseinfo;empirewindowfindiconownedplanetswithfactories;gameeventsound:useabilityunmetconstraintiscargoship;alliancehudicontacticalslotspact;gameeventsound:allybackupenroute;gameeventsound:useabilityunmetconstraintmodulenotactivelybeingconstructed;zoominstantcontextfar;hudiconoverlayplanetmodulenotacticalslotsavailable;gameeventsound:playerquestadded;gameeventsound:allyoccupationvictorycomplete;unknownplanetinfocardicon;alliancehudiconbeamweaponpact;factionnameid;gameeventsound:playertitanhullseverelydamaged;capitalshipexiteffectname;gameeventsound:useabilityunmetownerhostile;haswonflagshipstatusformatstringid;gameeventsound:playertitancreated;tierindicatorbackdrop;gameeventsound:buynoavailablecapitalshipslots;orderinfocardiconmove;haswonmilitaryphrasestringid;useractioniconpingallydefend;gameeventsound:shipupgradealreadymaxlevel;alliancehudiconexternalvision;hudiconquest;useractioniconupgradeplanethome;useractioniconopenescapemenuscreen;elevatormeshname:productioncenter;frigatetraveleffectnamebetweenstars;haslostflagshipphrasestringid;gameeventsound:spaceminelimitreached;gameeventsound:randomeventdetected;gameeventsound:colonizeplanetblockedbyenemystarbase;gameeventsound:marketboom;hyperspacespeedtofriendlyorbitbodiesmultiplier;namecount;haswondiplomaticphrasestringid;titantraveleffectsoundid;gameeventsound:allianceceasefirebroken;frigateinfo;gameeventsound:useabilityunmetconstrainthasenergyweapons;empirewindowfindiconownedplanetswithupgrades;alliancehudiconweaponcooldownpact;gameeventsound:starbaseupgradealreadymaxlevel;isselectable;gameeventsound:questfailed;titanchargeupeffectname;hudiconoverlayplanetbuildshipnocapitalshipfactories;gameeventsound:researchvictorystarted;groupmovestatenone;cohesionrangestateallfar;hyperspacespeedbetweenstarsmultiplier;useractionicontoggleempirewindowstacked;gameeventsound:useabilityunmetconstraintcanspreadweapondamage;hudiconoverlayplanetbuildshipnotenoughcapitalshipslots;titantraveleffectnamebetweenstars;useractionicontoggleisautoplacemoduleactive;gameeventsound:allyoccupationvictoryhalfway;alliancehudiconsupplypact;musictheme;gameeventsound:playerflagshipunderattack;useractioniconupdateplanetinfrastructure;bottomwindowbackdrop;backdrop;modifiermin;gameeventsound:playercapitalshipcreated;name;empirewindowfindiconownedstarbases;fleet;useractioniconopenplanetcapitalshipmanagement;gameeventsound:allytitanlost;gameeventsound:playerstarbaselost;gameeventsound:pirateraidlaunched;resourceinfocardiconmetal;empirewindowfindiconownedcapitalships;basehyperspacespeed;gameeventsound:useabilityunmetconstraintismovingtolocalorbitbody;shieldabsorbbasemin;gameeventsound:attacktargetinvalidascantfireatfighters;elevatormeshname:taxcenter;gameeventsound:enemyresearchvictorycomplete;gameeventsound:useabilityunmetconstraintmoduleunderconstruction;planetmoduleinfo;alliancehudiconresearchpact;useractioniconattack;zoominstantcontextnear;gameeventcategoryproduction;gameeventsound:hostilefleetarrived;block;cohesionrangestateallnear;elevatormeshname:goodsfactory;useractioniconcloseshipabilitymanagement;useractioniconupgradeplanetpopulation;hudiconoverlayplanetmodulenocivilianslotsavailable;capitalshiptraveleffectnamebetweenstars;frigateexiteffectsoundid;gameeventsound:useabilitydisabledbydebuff;autoattackrangestatemixed;elevatormeshname:culturecenter;resourcehudiconcrystal;basehyperspaceantimattercost;gameeventsound:useabilityunmetconstrainthasweapons;gameeventsound:attacktargetinvalidascantmoveandtargetnotinrange;gameeventsound:playercapitalplanetlost;useractioniconopenshiptacticsmanagement;capitalshiptraveleffectname;gameeventsound:playercapitalshipshieldsdown;gameeventdata;orderinfocardiconability;useractioniconcloseplanettitanmanagement;gameeventsound:buyalreadyhastitan;haslosthomeworldstatusformatstringid;gameeventsound:playerplanetcolonized;gameeventsound:researchnotenoughpointsintier;gameeventsound:novalidpathbetweenstars;gameeventsound:useabilityunmetconstrainthaspopulation;gameeventsound:enemyresearchvictoryhalfway;gameeventsound:enemydiplomaticvictoryhalfway;gameeventsound:planetupgradealreadymaxlevel;gameeventsound:diplomaticvictorycomplete;gameeventsound:abilityupgraderequireshigherlevel;haslostresearchstatusformatstringid;racenameparseprefixfallback;gameeventsound:playerquestfailed;gameeventsound:enemyoccupationvictoryhalfway;title;shipslotlevelpicture;gameeventsound:enemytitanqueued;gameeventsound:useabilitynormalspacetarget;frigatechargeupeffectnamedestabilized;hudiconoverlaystarbaseupgradepathlaststageupgraded;capitalshipinfo;gameeventsound:novalidpath;gameeventsound:playertitanlost;useractioniconcreatefleet;useractionicondecreasegamespeed;gameeventsound:useabilityunmetownerplayer;scarethemecount;haslostdiplomaticphrasestringid;gameeventsound:marketcrash;titantraveleffectname;hudiconoverlaynotenoughcrystal;titanchargeupeffectsoundid;haslostoccupationstatusformatstringid;gameeventsound:allyplanetlost;entitytype;topwindowrightcaplowres;gameeventsound:scuttleplanetstarted;researchfieldbuttoniconfleet;useractioniconsetrallypoint;haslostpicture;capitalshipchargeupeffectnamebetweenstars;hudiconoverlayplanetmodulenoavailableresourceasteroids;gameeventsound:useabilityunmetowneralliedorenemy;empirewindowfindiconownedplanetswithcivilianslots;numrandommeshnamessmall;gameeventsound:useabilityunmetconstraintnotself;useractioniconopenplanetfrigatemanagement0;useractioniconopenplanetfrigatemanagement1;gameeventsound:playerbackuparrived;gameeventsound:allyrequestattackplanet;useractioniconopenstarbaseupgrademanagement;combat;gameeventsound:useabilityunmetconstraintcanhaveshields;diplomacy;topwindowbackdrop;cancolonize;useractioniconopennpcscreen;gameeventsound:buynotitanfactory;unknownplanetmainviewicon;elevatormeshname:crystalextractor;useractioniconopenplanettitanmanagement;gameeventsound:useabilityunmetownerfriendly;useractioniconopenshipabilitymanagement;capitalshipslotlevelpicture;haslostoccupationphrasestringid;gameeventsound:useabilityunmetconstrainthasabilitywithcooldown;gameeventsound:playerplanetunderattack;hudiconhappiness;gameeventsound:allyunitunderattack;basehyperspacechargeuptime;racerelationsmodifier;gameeventsound:allianceotherbroken;gameeventsound:playerfleetarrivedtofleetbeacon;notonpage;gameeventcategorythreat;alliancehudicontrade;gameeventsound:useabilitycannotuseabitrarylocationonentity;gameeventsound:enemycapitalplanetlost;infocardiconcombinedstarbaseincome;gameeventsound:playerplanetlost;useractioniconpingallyattack;researchfieldbuttoniconnoncombat;resourceinfocardiconcredits;hudiconoverlayplanetupgradepathlaststageupgraded;hudiconoverlayplanetbuildshipnofrigatefactories;gameeventsound:movecannottravelbetweenplanets;gameeventsound:researchmaxlevelqueued;modifiermax;resourcehudiconcredits;queststatusiconsendenvoy;alliancehudiconmarketpact;gameeventsound:playercultureflippedenemyplanet;gameeventsound:buynocrystal;useractioniconincreasegamespeed;randomstarbasenameprefix
EntryVehicle;maxaccelerationlinear;atmosphereentrysoundid;maxaccelerationstrafe;mass;surfaceimpactsoundid;exhausttrailtexturename;exhaustparticlesystemname;atmosphereentryeffectname;maxaccelerationangular;launchsoundid;hassurfaceimpacteffect;surfaceimpacteffectname;maxshadow;maxdecelerationangular;spacetravelsoundid;meshname;maxspeedlinear;exhausttrailwidth;maxrollrate;minshadow;maxrollangle;maxdecelerationlinear;entitytype
PlanetBonus;smallhudicon;intbonus:moduleconstructors;floatbonus:modulebuildrateperc;floatbonus:shipbuildcostadjustment;floatbonus:metalincomeperc;floatbonus:weapondamageatgravitywellmultiplier;entitytype;infocardicon;floatbonus:additiveculturespreadperc;maxupgradelevelneeded;hudicon;floatbonus:additiveslotscivilian;minupgradelevelneeded;floatbonus:additivetaxincome;floatbonus:populationgrowthperc;intbonus:maxspacemines;floatbonus:planetupgradebuildcostperc;floatbonus:additivepopulation;floatbonus:additiveplanethealth;floatbonus:crystalincomeperc;namestringid;floatbonus:maxallegiancepercbonus;dlcid;descstringid;floatbonus:modulebuildcostperc;intbonus:maxstarbases;floatbonus:planetupgradebuildrateperc;floatbonus:additiveslotstactical;floatbonus:bombingdamageasdamagetargetadjustment;floatbonus:gravitywellradiusperc;intbonus:spaceponies;floatbonus:additivetradeincomeperc
Squad;requiredfactionnameid;smallhudicon;researchprerequisites;defaultautoattackon;entitytype;fighterillusionentitydef;level;requiredcompletedresearchsubjects;infocardicon;subject;numsoundsfor:ongeneralorderissued;numsoundsfor:onattackorderissued;preferstofocusfire;scuttletime;basemaxnumfighters;launchicon;hudicon;numsoundsfor:oncreation;fighterconstructiontime;defaultautoattackrange;usesfighterattack;statcounttype;maxshadow;descriptionstringid;mainviewicon;numsoundsfor:onselected;researchprerequisite;role;numresearchprerequisites;dockicon;minshadow;ability:2;ability:3;ability:0;ability:1;picture;ability:4;decaywithoutownerrate;numsoundsfor:onstartphasejump;namestringid;soundid;fighterentitydef
StarBaseUpgrade;propertytype;requiredfactionnameid;upgradetime;requiredcompletedresearchsubjects;upgradeproperty;researchprerequisites;entitytype;level;smallhudicon;infocardicon;upgradepropertycount;subject;xpmodifier;metal;hudicon;value;crystal;stage;upgradeboolpropertycount;stagecount;researchprerequisite;credits;numresearchprerequisites;namestringid;descstringid;price;upgradeboolproperty
Fighter;maxaccelerationlinear;beamwidth;targetcountperbank:right;damagetype;targetcountperbank:left;infocardicon;preferstofocusfire;maxaccelerationangular;exhausttrailwidth;burstcount;defaultautoattackrange;usesfighterattack;canfireatfighter;armortype;maxshadow;m_weaponindexforrange;numweapons;maxrollangle;beamglowcolor;soundcount;missilestartturningdistance;burstdelay;duration;beameffectsounds;maxdecelerationlinear;damageperbank:back;projectiletraveleffectname;smallhudicon;numrandomdebrissmall;firingalignmenttype;damageperbank:front;minzoomdistancemult;mass;numrandomdebrislarge;maxhullpoints;missileslowturnrate;damageapplytype;hudicon;targetcountperbank:back;beamcoretexturename;muzzlesounds;damageperbank:left;defaultautoattackon;damageaffecttype;travelspeed;beamtilingrate;fireconstrainttype;weapon;missilemaxslowturntime;weapontype;damageenums;attacktype;entitytype;sound;range;exhausttrailtexturename;exhaustparticlesystemname;canonlytargetstructures;hitshieldseffectsounds;statcounttype;pointstaggerdelay;maxdecelerationangular;counterdescriptionstringid;maxaccelerationstrafe;numspecificdebris;minshadow;hiteffectname;enginesoundid;firedelay;weapontype;targetcountperbank:front;muzzlesoundminrespawntime;beamcorecolor;maxspeedlinear;meshname;muzzleeffectname;weaponclasstype;hithulleffectsounds;maxmitigation;weaponeffects;missiletraveleffectname;hullpointrestorerate;formationoffsetdistance;synchronizedtargeting;beamglowtexturename;damageperbank:right;armorpoints;prebuffcooldowntime;maxrollrate;namestringid;experiencepointsfordestroying;explosionname
CannonShell;smallhudicon;startingspeed;minzoomdistancemult;entitytype;rendermesh;planetimpactcamerashakeduration;infocardicon;planetimpactcamerashakemaxsize;maxspeed;sound;hudicon;maxshadow;acceleration;bufftoapplyonimpact;planetimpactsounds;planetimpacteffectname;minshadow;mainviewicon;namestringid;picture;soundcount;descstringid;planetimpactcamerashakestrength;meshname
Debris;averagelifetime;minlinearspeed;lifetimevarianceperc;entitytype;dragrate;maxshadow;maxlinearspeed;maxangularspeed;minshadow;minangularspeed
Cosmetic;upgradetypecount;maxaccelerationlinear;hullpointrestorerate;autojoinfleetdefault;targetcountperbank:right;numrandomdebrissmall;targetcountperbank:left;formationrank;infocardicon;antimatterrestorerate;numsoundsfor:ongeneralorderissued;baseprice;numsoundsfor:onattackorderissued;preferstofocusfire;maxaccelerationangular;weapondamageincreaseperc;hyperspacechargingsoundid;rendershield;burstcount;defaultautoattackrange;usesfighterattack;crystal;canfireatfighter;namestringid;armortype;meshnamedecreasedeffectname;criteriatype;m_weaponindexforrange;beamwidth;numweapons;maxrollangle;beamglowcolor;soundcount;maxshieldpoints;missilestartturningdistance;numsoundsfor:onstartphasejump;burstdelay;duration;shieldpointrestorerate;beameffectsounds;maxdecelerationlinear;damageperbank:back;projectiletraveleffectname;maxantimatter;smallhudicon;damagetype;firingalignmenttype;damageperbank:front;minzoomdistancemult;mass;cultureprotectrate;numrandomdebrislarge;enginesoundid;missileslowturnrate;damageapplytype;hudicon;numsoundsfor:oncreation;targetcountperbank:back;beamcoretexturename;maxhullpoints;muzzlesounds;damageperbank:left;defaultautoattackon;damageaffecttype;travelspeed;beamtilingrate;fireconstrainttype;weapon;weaponcooldowndecreaseperc;maxshadow;requiredfactionnameid;armorpointsfromexperience;missilemaxslowturntime;weapontype;damageenums;meshnameincreasedeffectname;attacktype;entitytype;slotcount;credits;exhaustparticlesystemname;metal;sound;range;startvalue;canonlytargetstructures;hitshieldseffectsounds;statcounttype;pointstaggerdelay;maxdecelerationangular;numsoundsfor:onselected;maxspeedlinear;numresearchprerequisites;valueincreaseperlevel;numspecificdebris;minshadow;hiteffectname;mainviewicon;picture;firedelay;weapontype;buildtime;shieldmeshname;targetcountperbank:front;requiredcompletedresearchsubjects;hyperspacetravelsoundid;muzzlesoundminrespawntime;beamcorecolor;maxaccelerationstrafe;meshname;meshnameinfo;muzzleeffectname;weaponclasstype;hithulleffectsounds;maxmitigation;weaponeffects;missiletraveleffectname;upgradetype;synchronizedtargeting;beamglowtexturename;damageperbank:right;prebuffcooldowntime;descriptionstringid;meshnameinfocount;prerequisites;maxrollrate;ability:2;ability:3;ability:0;ability:1;commandpoints;ability:4;soundid;explosionname
Formation;entitytype
PlanetModuleHangarDefense;hullpointrestorerate;targetcountperbank:right;numrandomdebrissmall;maxshieldmitigation;formationrank;infocardicon;antimatterrestorerate;buildeffectname;numsoundsfor:ongeneralorderissued;baseprice;numsoundsfor:onattackorderissued;preferstofocusfire;rendershield;burstcount;defaultautoattackrange;usesfighterattack;crystal;canfireatfighter;namestringid;armortype;maxshadow;criteriatype;m_weaponindexforrange;prerequisites;numweapons;swapminetype;squadtypeentitydef:1;squadtypeentitydef:0;squadtypeentitydef:3;squadtypeentitydef:2;basebuildtime;planetupgradeslotcount;soundcount;maxshieldpoints;numsoundsfor:onstartphasejump;numrandomdebrislarge;duration;shieldpointrestorerate;damageperbank:back;entitytype;projectiletraveleffectname;maxantimatter;squadantimattercost:2;squadantimattercost:3;squadantimattercost:0;squadantimattercost:1;firingalignmenttype;damageperbank:front;minzoomdistancemult;targetcountperbank:left;burstdelay;damageapplytype;prerequisites;hudicon;numsoundsfor:oncreation;targetcountperbank:back;culturespreadrate;maxhullpoints;experiencepointsfordestroying;muzzlesounds;rotatesoundname;weaponeffects;smallhudicon;spawncount;resourceextractiontype;basecommandpoints;damageperbank:left;meshname;damageaffecttype;travelspeed;fireconstrainttype;weapon;requiredfactionnameid;descriptionstringid;weapontype;damageenums;meshnameincreasedeffectname;attacktype;rotatefacingtype;level;farplacementdistoffset;subject;metal;sound;isaffectedbysimilarmodulecostresearch;range;placementradius;rotateconstantly;canonlytargetstructures;hitshieldseffectsounds;planetupgradeslottype;statcounttype;pointstaggerdelay;numsoundsfor:onselected;researchprerequisite;numresearchprerequisites;numspecificdebris;minshadow;hiteffectname;mainviewicon;picture;firedelay;weapontype;shieldmeshname;targetcountperbank:front;requiredcompletedresearchsubjects;basearmorpoints;muzzlesoundminrespawntime;researchprerequisites;defaultautoattackon;meshnameinfo;muzzleeffectname;weaponclasstype;hithulleffectsounds;meshnamedecreasedeffectname;planetmoduleroletype;synchronizedtargeting;damageperbank:right;nearplacementdistoffset;prebuffcooldowntime;credits;meshnameinfocount;ability:2;ability:3;ability:0;ability:1;ability:4;damagetype;angularspeed;soundid;explosionname
TitanUpgrade;stage;requiredfactionnameid;upgradeboolpropertycount;requiredcompletedresearchsubjects;upgradeproperty;stagecount;entitytype;numresearchprerequisites;smallhudicon;infocardicon;upgradepropertycount;namestringid;propertytype;descstringid;levelrequirement;hudicon;value;researchprerequisites
PlanetModuleShipFactory;requiredfactionnameid;descriptionstringid;hullpointrestorerate;rotatefacingtype;numrandomdebrissmall;maxshieldmitigation;farplacementdistoffset;formationrank;infocardicon;subject;antimatterrestorerate;buildeffectname;numsoundsfor:ongeneralorderissued;baseprice;numsoundsfor:onattackorderissued;metal;isaffectedbysimilarmodulecostresearch;placementradius;rendershield;level;rotateconstantly;crystal;planetupgradeslottype;basearmorpoints;namestringid;armortype;maxshadow;meshnameincreasedeffectname;numsoundsfor:onselected;prerequisites;researchprerequisite;numresearchprerequisites;numspecificdebris;criteriatype;minshadow;mainviewicon;basebuildtime;picture;planetupgradeslotcount;maxshieldpoints;numsoundsfor:onstartphasejump;numrandomdebrislarge;shieldmeshname;shieldpointrestorerate;entitytype;maxantimatter;requiredcompletedresearchsubjects;statcounttype;minzoomdistancemult;meshnameinfo;swapminetype;meshnamedecreasedeffectname;planetmoduleroletype;hudicon;numsoundsfor:oncreation;culturespreadrate;nearplacementdistoffset;maxhullpoints;experiencepointsfordestroying;rotatesoundname;smallhudicon;credits;spawncount;meshnameinfocount;resourceextractiontype;ability:2;ability:3;ability:0;ability:1;ability:4;meshname;angularspeed;soundid;explosionname
Frigate;maxaccelerationlinear;hullpointrestorerate;autojoinfleetdefault;targetcountperbank:right;numrandomdebrissmall;targetcountperbank:left;formationrank;infocardicon;haslevels;numsoundsfor:ongeneralorderissued;baseprice;numsoundsfor:onattackorderissued;preferstofocusfire;maxaccelerationangular;weaponcooldownmult;hyperspacechargingsoundid;rendershield;burstcount;typecount;defaultautoattackrange;usesfighterattack;crystal;canfireatfighter;namestringid;counterdescriptionstringid;meshnamedecreasedeffectname;basepopulationkilled;criteriatype;specificdebrismeshname;m_weaponindexforrange;beamwidth;numweapons;level:0;level:1;level:2;level:3;squadtypeentitydef:1;squadtypeentitydef:0;squadtypeentitydef:3;maxrollangle;baserange;beamglowcolor;soundcount;maxshieldpoints;missilestartturningdistance;numsoundsfor:onstartphasejump;burstdelay;duration;shieldpointrestorerate;beameffectsounds;maxdecelerationlinear;damageperbank:back;projectiletraveleffectname;maxhullpoints;maxantimatter;smallhudicon;damagetype;squadantimattercost:0;squadantimattercost:1;firingalignmenttype;damageperbank:front;minzoomdistancemult;bombeffectcount;mass;numrandomdebrislarge;damageperbank:right;maxcargocapacity;missileslowturnrate;damageapplytype;prerequisites;hudicon;numsoundsfor:oncreation;targetcountperbank:back;beamcoretexturename;maxnumcommandpoints;experiencepointsfordestroying;muzzlesounds;weaponeffects;antimatterrestorerate;bombeffectanglevariance;firingtiltangle;squadtypeentitydef:2;frigateroletype;damageperbank:left;defaultautoattackon;allegiancedecreaseperroundtrip;damageaffecttype;travelspeed;beamtilingrate;fireconstrainttype;weapon;requiredfactionnameid;weapondamagemult;descriptionstringid;missilemaxslowturntime;weapontype;damageenums;meshnameincreasedeffectname;attacktype;entitytype;slotcount;level;squadantimattercost:2;exhaustparticlesystemname;squadantimattercost:3;subject;metal;sound;range;canonlytargetstructures;hitshieldseffectsounds;basearmorpoints;pointstaggerdelay;maxdecelerationangular;cargotype;numsoundsfor:onselected;maxmitigation;researchprerequisite;numresearchprerequisites;numspecificdebris;minshadow;hiteffectname;mainviewicon;picture;firedelay;weapontype;bombingfreqtime;buildtime;shieldmeshname;hasweaponlevels;bombeffectsdef;targetcountperbank:front;bombtransittime;requiredcompletedresearchsubjects;hyperspacetravelsoundid;statcounttype;muzzlesoundminrespawntime;beamcorecolor;maxaccelerationstrafe;meshname;meshnameinfo;muzzleeffectname;armortype;weaponclasstype;hithulleffectsounds;maxshadow;missiletraveleffectname;maxspeedlinear;canbomb;synchronizedtargeting;hasbombinglevels;beamglowtexturename;enginesoundid;maxrollrate;prebuffcooldowntime;credits;meshnameinfocount;prerequisites;basedamage;ability:2;ability:3;ability:0;ability:1;ability:4;soundid;explosionname
Trigger;entitytype
Weapon;entitytype
MissionBuildStarBase;entitytype;missiontype
PlanetConnection;entitytype
StarBase;upgradetypecount;cargoshiptype;beamwidth;targetcountperbank:right;numrandomdebrissmall;maxcargoshipcount;targetcountperbank:left;infocardicon;buildeffectname;hyperspacechargingsoundid;defaultautoattackrange;usesfighterattack;meshnamedecreasedeffectname;maxrollangle;basebuildtime;levelrequirement;numrandomdebrislarge;beameffectsounds;squadantimattercost:2;squadantimattercost:3;squadantimattercost:0;squadantimattercost:1;firingalignmenttype;damageperbank:front;mass;damageapplytype;targetcountperbank:back;beamcoretexturename;muzzlesounds;damageperbank:left;travelspeed;fireconstrainttype;attacktype;rotatefacingtype;range;maxupgradelevelcount;pointstaggerdelay;maxaccelerationstrafe;hiteffectname;shieldmeshname;hyperspacetravelsoundid;maxspeedlinear;meshname;meshnameinfo;muzzleeffectname;weaponclasstype;maxshadow;upgradetype;synchronizedtargeting;beamglowtexturename;damageperbank:right;maxrollrate;namestringid;angularspeed;soundid;maxaccelerationlinear;criteriatype;upgradelevel;damagetype;formationrank;numsoundsfor:ongeneralorderissued;numsoundsfor:onattackorderissued;preferstofocusfire;maxaccelerationangular;rendershield;burstcount;canfireatfighter;armortype;weaponeffects;m_weaponindexforrange;numweapons;squadtypeentitydef:1;squadtypeentitydef:0;squadtypeentitydef:3;squadtypeentitydef:2;beamglowcolor;soundcount;missilestartturningdistance;numsoundsfor:onstartphasejump;burstdelay;duration;maxdecelerationlinear;damageperbank:back;projectiletraveleffectname;smallhudicon;minzoomdistancemult;missileslowturnrate;hudicon;numsoundsfor:oncreation;levelrequirements;rotatesoundname;defaultautoattackon;requiredstarbaseweaponlevel;damageaffecttype;beamtilingrate;weapon;creationsourceability;missilemaxslowturntime;weapontype;damageenums;meshnameincreasedeffectname;entitytype;cargoshiprespawntime;sound;upgradepropertytype;rotateconstantly;canonlytargetstructures;hitshieldseffectsounds;statcounttype;maxdecelerationangular;numsoundsfor:onselected;numspecificdebris;minshadow;mainviewicon;picture;firedelay;weapontype;targetcountperbank:front;muzzlesoundminrespawntime;beamcorecolor;hithulleffectsounds;missiletraveleffectname;prebuffcooldowntime;meshnameinfocount;ability:2;ability:3;ability:0;ability:1;ability:4;experiencepointsfordestroying;levelrequirementcount;explosionname
MissionFosterRelationships;entitytype;missiontype
Fleet;defaultcohesionrange;entitytype
MissionColonize;entitytype;missiontype
